cat=0 name=Default onfoot=5 slow=5 fast=5 defaultformat=2 defaultstream=0
"gunshell" width=32 height=32 png=87b9337a img=dec5747d alphamode=2
"splash_up1" width=32 height=32 png=6868df3b img=c41a03e1
"splash_up2" width=32 height=32 png=373ddf50 img=fba8e613
"boatwake1" width=64 height=64 png=6ac21d21 img=4a873835
"fireball6" width=32 height=32 png=b64adb4f img=18a39f42 alphamode=2
"wjet6" width=64 height=64 png=da85031e img=9fd35ff3 alphamode=2
"sphere_CJ" width=64 height=64 png=05ded91a img=43edfd17 alphamode=2
"cloudmasked" width=64 height=64 png=2d834f77 img=b6ecb22b alphamode=2
"pointlight" width=32 height=32 png=47e43bc7 img=63a23642 alphamode=2
"smoke" width=32 height=32 png=9c8824e9 img=1baf62c4 alphamode=2
"coronaringa" width=64 height=64 png=9a952b20 img=88085543
"gensplash" width=64 height=64 png=a0e713d0 img=e43d0e96 alphamode=2
"boatsplash" width=64 height=64 png=7d1d1f61 img=b40cbc53 alphamode=2
"bubbles" width=32 height=32 png=14404e56 img=f8d848d6 alphamode=2
"wjet4" width=128 height=128 png=d0751815 img=f3e2e79b alphamode=2
"carsplash_02" width=64 height=64 png=d50ed369 img=02ab0dbb alphamode=2
"splash_up" width=32 height=32 png=77189b02 img=c11b0d74
"collisionsmoke" width=64 height=64 png=54d0b32e img=91c8c53e alphamode=2
"beastie" width=16 height=16 png=40cbbcec img=4e2d4509 alphamode=2
"wjet2" width=64 height=64 png=f126d967 img=8ec3e584 alphamode=2
"wgush1" width=64 height=64 png=010c0eb3 img=f7917da6 alphamode=2
"gameleaf01_64" width=64 height=64 png=c9edab2b img=c5eee7a5 alphamode=1
"cement" width=32 height=32 png=0334a472 img=ec918924 alphamode=2
"cardebris_05" width=32 height=32 png=0f575802 img=348cea9c alphamode=2
"cardebris_04" width=32 height=32 png=dbcd8e03 img=9f03bcf9 alphamode=2
"cardebris_03" width=32 height=32 png=113c3257 img=a5299113 alphamode=2
"cardebris_02" width=32 height=32 png=8299a4a7 img=06289d36 alphamode=2
"cardebris_01" width=32 height=32 png=aa5e32cd img=085b56f7 alphamode=2
"smokeII_3" "affiliate=smoke"
"glassmall" width=32 height=32 png=17577560 img=860930fe alphamode=2
"waterspark_16" width=64 height=64 png=6ee7fa27 img=02829728 alphamode=2
"bullethitsmoke1" width=64 height=64 png=964d8783 img=96d009da alphamode=2
"sphere" width=64 height=64 png=219f0c59 img=77be55b8 alphamode=2
"smoke4" width=32 height=32 png=842fd175 img=3604135b
"bullethitsmoke" width=64 height=64 png=d43fc896 img=36bf25aa alphamode=2
"smoke5" width=32 height=32 png=ab98cc09 img=b5439db2
"bloodpool_64" width=64 height=64 png=9809a163 img=373ba129 alphamode=2
"carfx1" width=32 height=32 png=9c10f226 img=015b1528 alphamode=2
"cloud1" width=64 height=64 png=acf34477 img=944ac735
"cloudhigh" width=64 height=64 png=697dd736 img=fc4aa5ed alphamode=2
"coronaheadlightline" width=16 height=16 png=d654c0e4 img=a3a36c82
"coronamoon" width=64 height=64 png=ea4e3a64 img=545c17e9
"coronareflect" width=64 height=64 png=fd7295f3 img=05d6050a
"coronaringb" width=64 height=64 png=5787ba00 img=71a64335
"coronastar" width=128 height=128 png=e432c977 img=0c2e661c
"finishFlag" width=16 height=16 png=a0ee605d img=1766436c
"handman" width=64 height=64 png=c6338911 img=cb442657
"headlight" width=64 height=64 png=b85dfd36 img=3ebf8901
"headlight1" width=64 height=64 png=5a821d49 img=2ceacfe9
"lamp_shad_64" width=64 height=64 png=a0b9597f img=4c360084 alphamode=2
"lamp_shad_64_dark" width=64 height=64 png=df684bed img=45f972c3 alphamode=2
"lockon" width=64 height=64 png=62fa7942 img=cf34181a alphamode=2
"lockonFire" width=32 height=32 png=0de5b236 img=04cff84c alphamode=2
"lunar" width=32 height=32 png=3532f49d img=ac41491f alphamode=2
"particleskid" width=32 height=32 png=ed3bc4ed img=7855cdf0 alphamode=2
"roadsignfont" width=32 height=512 png=62bc0d97 img=c6bfc8d1 format=7 alphamode=2 streammode=1
"seabd32" width=32 height=32 png=9a74cc33 img=34600828
"shad_bike" width=64 height=64 png=99be5329 img=e6956741 alphamode=2
"shad_bike_dark" width=64 height=64 png=dbca7f97 img=14d5a7f5 alphamode=2
"shad_car" width=64 height=64 png=34962eea img=ec958363 alphamode=2
"shad_car_dark" width=64 height=64 png=569c80e4 img=5ae9920e alphamode=2
"shad_exp" width=32 height=32 png=25c950bc img=abb771e2
"shad_heli" width=64 height=64 png=d490da36 img=057f7bfe alphamode=2
"shad_heli_dark" width=64 height=64 png=35aa501f img=b09eb49a alphamode=2
"shad_ped" width=32 height=32 png=1959d281 img=46d91549 alphamode=2
"shad_ped_dark" width=32 height=32 png=d0e0caee img=9fa7e8fe alphamode=2
"shad_rcbaron" width=32 height=32 png=79776ed8 img=dbf8d6ef alphamode=2
"shad_rcbaron_dark" width=32 height=32 png=e1ed4999 img=85cc7fa1 alphamode=2
"target256" width=64 height=64 png=f41d7872 img=9d8593c5 alphamode=2
"txgrassbig0" width=64 height=256 png=8b44956e img=93932109 alphamode=2
"txgrassbig1" width=64 height=256 png=c2444d80 img=3ed02826 alphamode=2
"waterclear256" width=128 height=128 png=ddff18ab img=6192baa3 hasdetail=4 alphamode=2
"waterwake" width=64 height=64 png=5e9709b7 img=f6fab6bd alphamode=2
"wincrack_32" width=32 height=32 png=03e8e109 img=0d10c19e alphamode=2
"crosshair" width=32 height=32 png=ff9d7a2e img=b60f78f2 alphamode=2
"mouse" width=32 height=32 png=18bb4518 img=4beb8f4b alphamode=2
"arrow" width=64 height=128 png=f7cfa239 img=d903ce4a hassibling=1 alphamode=2 streammode=1
"radio_bounce" width=128 height=128 png=dd462832 img=87d56ea4 streammode=1
"radio_KDST" width=128 height=128 png=fdc8b809 img=3f9346d6 streammode=1
"radio_kjah" width=128 height=128 png=32406b11 img=6a5a1b25 streammode=1
"radio_krose" width=128 height=128 png=07b5d4ec img=12884e68 streammode=1
"radio_mastersounds" width=128 height=128 png=e8645bc0 img=458724ef streammode=1
"radio_playback" width=128 height=128 png=fe4acbc6 img=387a055b streammode=1
"radio_RADIOX" width=128 height=128 png=5e73d1d1 img=5b97358d streammode=1
"radio_RLS" width=128 height=128 png=effa8bad img=d8da8c9b streammode=1
"radio_SFUR" width=128 height=128 png=b3679ff4 img=6568f6fe streammode=1
"radio_WCTR" width=128 height=128 png=1cc0eb26 img=90e85cdb streammode=1
"radio_csr" width=128 height=128 png=3dcd3bb3 img=aac27cf1 streammode=1
"radio_TPLAYER" width=128 height=128 png=10823f3d img=0d79e036 streammode=1
"map" width=512 height=512 png=7e5d725c img=02ff58bd
"arrow_hud" width=64 height=64 png=d39fcf85 img=790811eb format=4 alphamode=2 streammode=1
"fist" width=256 height=256 png=b6e8363b img=cc75128f format=4 mipmode=0 alphamode=2
"radarRingPlane" width=64 height=64 png=a0c3b72d img=4cb75e68 alphamode=2
"radar_airYard" width=64 height=64 png=77745a22 img=a3382edf format=4 mipmode=0 alphamode=2 streammode=1
"radar_ammugun" width=64 height=64 png=643420b7 img=049a9122 format=4 mipmode=0 alphamode=2 streammode=1
"radar_barbers" width=64 height=64 png=e403e576 img=47d60800 format=4 mipmode=0 alphamode=2 streammode=1
"radar_BIGSMOKE" width=64 height=64 png=eef7a555 img=6fc04579 format=4 mipmode=0 alphamode=2 streammode=1
"radar_boatyard" width=64 height=64 png=15e54f6f img=6a756319 format=4 mipmode=0 alphamode=2 streammode=1
"radar_bulldozer" width=64 height=64 png=5583c3c3 img=c83bde11 format=4 mipmode=0 alphamode=2 streammode=1
"radar_burgerShot" width=64 height=64 png=b00e5891 img=a1706916 format=4 mipmode=0 alphamode=2 streammode=1
"radar_cash" width=64 height=64 png=157c29e2 img=6eedaab5 format=4 mipmode=0 alphamode=2 streammode=1
"radar_CATALINAPINK" width=64 height=64 png=b5a125b0 img=65756c6b format=4 mipmode=0 alphamode=2 streammode=1
"radar_centre" width=64 height=64 png=c20d3146 img=0d5f642d format=4 mipmode=0 alphamode=2 streammode=1
"radar_CESARVIAPANDO" width=64 height=64 png=495381e1 img=578835ad format=4 mipmode=0 alphamode=2 streammode=1
"radar_chicken" width=64 height=64 png=c0887a54 img=f6a74295 format=4 mipmode=0 alphamode=2 streammode=1
"radar_CJ" width=64 height=64 png=cac68449 img=ad8b1369 format=4 mipmode=0 alphamode=2 streammode=1
"radar_CRASH1" width=64 height=64 png=5b10e7cb img=6965d984 format=4 mipmode=0 alphamode=2 streammode=1
"radar_dateDisco" width=64 height=64 png=d7fd472b img=07e0d8ce format=4 mipmode=0 alphamode=2 streammode=1
"radar_dateDrink" width=64 height=64 png=3ed34593 img=d9bcf5c5 format=4 mipmode=0 alphamode=2 streammode=1
"radar_dateFood" width=64 height=64 png=c20e38c8 img=97d3c93e format=4 mipmode=0 alphamode=2 streammode=1
"radar_diner" width=64 height=64 png=b3260596 img=dacd12c1 format=4 mipmode=0 alphamode=2 streammode=1
"radar_emmetGun" width=64 height=64 png=82a4c999 img=6c1c365e format=4 mipmode=0 alphamode=2 streammode=1
"radar_enemyAttack" width=64 height=64 png=8d5b3269 img=7f47fea2 format=4 mipmode=0 alphamode=2 streammode=1
"radar_fire" width=64 height=64 png=e59db247 img=134c1fe2 format=4 mipmode=0 alphamode=2 streammode=1
"radar_Flag" width=64 height=64 png=8263e750 img=2e24c22c format=4 mipmode=0 alphamode=2 streammode=1
"radar_gangB" width=64 height=64 png=805deb45 img=ca0a3852 format=4 mipmode=0 alphamode=2 streammode=1
"radar_gangG" width=64 height=64 png=238e7801 img=d2d7dc8c format=4 mipmode=0 alphamode=2 streammode=1
"radar_gangN" width=64 height=64 png=f807c8e2 img=67399231 format=4 mipmode=0 alphamode=2 streammode=1
"radar_gangP" width=64 height=64 png=b5014b4b img=43b9c3bc format=4 mipmode=0 alphamode=2 streammode=1
"radar_gangY" width=64 height=64 png=bb420d40 img=e07a1ae6 format=4 mipmode=0 alphamode=2 streammode=1
"radar_girlfriend" width=64 height=64 png=93f414ec img=456b3079 format=4 mipmode=0 alphamode=2 streammode=1
"radar_gym" width=64 height=64 png=7ec9075c img=50c588dc format=4 mipmode=0 alphamode=2 streammode=1
"radar_hostpital" width=64 height=64 png=c50708aa img=714c9895 format=4 mipmode=0 alphamode=2 streammode=1
"radar_impound" width=64 height=64 png=9d96f798 img=05e45dc3 format=4 mipmode=0 alphamode=2 streammode=1
"radar_light" width=64 height=64 png=18705a9a img=fa0829a3 format=4 mipmode=0 alphamode=2 streammode=1
"radar_LocoSyndicate" width=64 height=64 png=f990f666 img=83a18ff7 format=4 mipmode=0 alphamode=2 streammode=1
"radar_MADDOG" width=64 height=64 png=00cb00b7 img=f065a3d8 format=4 mipmode=0 alphamode=2 streammode=1
"radar_mafiaCasino" width=64 height=64 png=28e0755b img=3918cc13 format=4 mipmode=0 alphamode=2 streammode=1
"radar_MCSTRAP" width=64 height=64 png=eaef22f6 img=3ddcc039 format=4 mipmode=0 alphamode=2 streammode=1
"radar_modGarage" width=64 height=64 png=9f1667c2 img=7b67c5ee format=4 mipmode=0 alphamode=2 streammode=1
"radar_north" width=64 height=64 png=6020e2f8 img=ea59df57 format=4 mipmode=0 alphamode=2 streammode=1
"radar_OGLOC" width=64 height=64 png=06511f15 img=d24abab1 format=4 mipmode=0 alphamode=2 streammode=1
"radar_pizza" width=64 height=64 png=996c685d img=70624af3 format=4 mipmode=0 alphamode=2 streammode=1
"radar_police" width=64 height=64 png=99a16a86 img=07c42f81 format=4 mipmode=0 alphamode=2 streammode=1
"radar_propertyG" width=64 height=64 png=9e7c2402 img=c57cbbca format=4 mipmode=0 alphamode=2 streammode=1
"radar_propertyR" width=64 height=64 png=a56a0964 img=db924606 format=4 mipmode=0 alphamode=2 streammode=1
"radar_qmark" width=64 height=64 png=0642453a img=49f139e9 format=4 mipmode=0 alphamode=2 streammode=1
"radar_race" width=64 height=64 png=1cee78e2 img=957aade2 format=4 mipmode=0 alphamode=2 streammode=1
"radar_runway" width=64 height=64 png=bfad94c1 img=67b02e22 format=4 mipmode=0 alphamode=2 streammode=1
"radar_RYDER" width=64 height=64 png=8be97364 img=7c5991eb format=4 mipmode=0 alphamode=2 streammode=1
"radar_saveGame" width=64 height=64 png=f6aec523 img=7c3bdc91 format=4 mipmode=0 streammode=1
"radar_school" width=64 height=64 png=2541c5c0 img=d24584b8 format=4 mipmode=0 alphamode=2 streammode=1
"radar_spray" width=64 height=64 png=0b005a1e img=a68ad315 format=4 mipmode=0 alphamode=2 streammode=1
"radar_SWEET" width=64 height=64 png=d997a7c8 img=151142a8 format=4 mipmode=0 alphamode=2 streammode=1
"radar_tattoo" width=64 height=64 png=97ac7a35 img=cbe350b9 format=4 mipmode=0 alphamode=2 streammode=1
"radar_THETRUTH" width=64 height=64 png=38b48eac img=435e7e2b format=4 mipmode=0 alphamode=2 streammode=1
"radar_TORENO" width=64 height=64 png=8039d13a img=073602dd format=4 mipmode=0 alphamode=2 streammode=1
"radar_TorenoRanch" width=64 height=64 png=2b67a091 img=e2c88136 format=4 mipmode=0 alphamode=2 streammode=1
"radar_triads" width=64 height=64 png=a0d4b374 img=0471cad9 format=4 mipmode=0 alphamode=2 streammode=1
"radar_triadsCasino" width=64 height=64 png=2bb05ad8 img=3fe216c8 format=4 mipmode=0 alphamode=2 streammode=1
"radar_truck" width=64 height=64 png=16cd3309 img=22e75ebd format=4 mipmode=0 alphamode=2 streammode=1
"radar_tshirt" width=64 height=64 png=7c36af61 img=bc92fe73 format=4 mipmode=0 alphamode=2 streammode=1
"radar_waypoint" width=64 height=64 png=1de9d5c7 img=031926c7 format=4 mipmode=0 alphamode=2 streammode=1
"radar_WOOZIE" width=64 height=64 png=3fe63ae4 img=9005eacb format=4 mipmode=0 alphamode=2 streammode=1
"radar_ZERO" width=64 height=64 png=cf381854 img=ce7e4892 format=4 mipmode=0 alphamode=2 streammode=1
"siteM16" width=64 height=64 png=2f3743e6 img=14ed492f format=4 alphamode=2 streammode=1
"siterocket" width=32 height=32 png=98f362eb img=9186964e format=4 alphamode=1 streammode=1
"skipicon" width=128 height=128 png=1ffed6e9 img=f2ffe3d8 format=4 alphamode=2 streammode=1
"radardisc" width=64 height=64 png=dffaf214 img=72e780cd format=4 alphamode=2 streammode=1
"down" width=128 height=128 png=e8a93be1 img=a0f110fc format=4 alphamode=2
"left" width=128 height=128 png=e7edfd1f img=7422751a format=4 alphamode=2
"right" width=128 height=128 png=c4793697 img=03eb1be5 format=4 alphamode=2
"up" width=128 height=128 png=d7b8a37a img=6f94c85d format=4 alphamode=2
"font1" width=1024 height=1024 png=f70c793c img=98d28fcb format=4 alphamode=2 streammode=1
"font2" width=1024 height=1024 png=a1288320 img=1c496f33 format=4 alphamode=2 streammode=1
"gras07Si" width=128 height=64 png=63b1f828 img=9dee11f7 alphamode=2
"txgrass0_0" width=64 height=64 png=f856fbb3 img=0681687c alphamode=2
"txgrass0_1" width=64 height=64 png=bc901fa4 img=fa064f36 alphamode=2
"txgrass0_2" width=64 height=64 png=d741821c img=ad7bf47f alphamode=2
"txgrass0_3" width=64 height=64 png=703ac7c4 img=25390fd6 alphamode=2
"txgrass1_0" width=64 height=64 png=c78efd11 img=a21a0d35 alphamode=2
"txgrass1_1" width=64 height=64 png=eb30705d img=e03574ba alphamode=2
"txgrass1_2" width=64 height=64 png=1a862933 img=492affd7 alphamode=2
"txgrass1_3" width=64 height=64 png=c6281a50 img=d9935d8e alphamode=2
"carpback" width=4 height=4 png=f8f26859 img=fc1c05de format=4
"carplate" width=4 height=4 png=f8f26859 img=fc1c05de format=4
"white" width=4 height=4 png=f8f26859 img=fc1c05de format=4
"plateback1" width=64 height=32 png=939bc092 img=6e6ac3b6 format=7 streammode=1
"plateback2" width=64 height=32 png=c6c6d19c img=add0154d format=7 streammode=1
"plateback3" width=64 height=32 png=0bd4c505 img=96c3a330 format=7 streammode=1
"platecharset" width=32 height=256 png=4f2d1226 img=ea987e54 format=7 streammode=1
"vehicledash32" width=32 height=32 png=d9afaa2d img=3a22ea6b alphamode=2
"vehicleenvmap128" width=128 height=128 png=99f7053f img=7a8ebea7
"vehiclegeneric256" width=256 height=256 png=3bd4c1b4 img=26b63068
"vehiclegrunge256" width=256 height=256 png=8f2aa308 img=990da491 format=7 streammode=1
"vehiclelights128" width=128 height=128 png=a9e11b25 img=15c1e682
"vehiclelightson128" width=128 height=128 png=4df9b7d0 img=697bb474
"vehiclepoldecals128" width=128 height=128 png=18b03657 img=fbe917c7 alphamode=2 decalz=1
"vehiclescratch64" width=128 height=128 png=4d0f99e5 img=c61fad07 alphamode=2
"vehicleshatter128" width=256 height=256 png=2ab0810c img=cecc966c alphamode=2
"vehiclespecdot64" width=256 height=256 png=15f53287 img=384733b0
"vehiclesteering128" width=128 height=128 png=249ff0a5 img=04aef350 alphamode=2
"vehicletyres128" width=64 height=128 png=6b0ab28d img=946d77db
"xvehicleenv128" width=128 height=128 png=e8cef39f img=969c6708
"chit" width=64 height=64 png=1b47eafd img=99fffa84 alphamode=2
"circle" width=32 height=32 png=e13c9643 img=122d2451 alphamode=2
"cring" width=128 height=128 png=e6016bd1 img=e4680403 format=4 alphamode=2
"cross" width=32 height=32 png=72e01c71 img=500838c0 alphamode=2
"downl" width=128 height=128 png=5fb0b09f img=53d0b5af alphamode=2
"downr" width=128 height=128 png=e2c0ac0a img=023f9846 alphamode=2
"square" width=32 height=32 png=c51185c3 img=8778b879 alphamode=2
"triang" width=32 height=32 png=33579d11 img=8b06721b alphamode=2
"upl" width=128 height=128 png=4940dd8e img=d1cd0daf alphamode=2
"upr" width=128 height=128 png=b86740db img=99674046 alphamode=2
"blkdot" width=4 height=4 png=f8f26859 img=fc1c05de format=4
"bum1" width=128 height=128 png=2050746e img=58e6e0f4
"bum2" width=128 height=128 png=882fe4e5 img=5480c8cd
"cd10c" width=128 height=256 png=fd16881f img=e96f6194 format=4 hassibling=1 alphamode=2
"cd10d" width=128 height=256 png=409f9bc6 img=772f22e7 format=4 hassibling=1 alphamode=2
"cd10h" width=128 height=256 png=477d8a00 img=3b86fa7c format=4 hassibling=1 alphamode=2
"cd10s" width=128 height=256 png=87eda8b6 img=0f79a2ce format=4 hassibling=1 alphamode=2
"cd11c" width=128 height=256 png=cc9eebd3 img=8ba6afed format=4 hassibling=1 alphamode=2
"cd11d" width=128 height=256 png=376f7020 img=dff06366 format=4 hassibling=1 alphamode=2
"cd11h" width=128 height=256 png=061917c5 img=55549ff8 format=4 hassibling=1 alphamode=2
"cd11s" width=128 height=256 png=983c246d img=3f7d9121 format=4 hassibling=1 alphamode=2
"cd12c" width=128 height=256 png=0863b154 img=fc15a0ba format=4 hassibling=1 alphamode=2
"cd12d" width=128 height=256 png=43cb8d75 img=9241b9b8 format=4 hassibling=1 alphamode=2
"cd12h" width=128 height=256 png=0710fdb1 img=999c1c90 format=4 hassibling=1 alphamode=2
"cd12s" width=128 height=256 png=476db6c5 img=0703edb0 format=4 hassibling=1 alphamode=2
"cd13c" width=128 height=256 png=8f84ed92 img=cbf9588a format=4 hassibling=1 alphamode=2
"cd13d" width=128 height=256 png=547589c8 img=b1c29a05 format=4 hassibling=1 alphamode=2
"cd13h" width=128 height=256 png=f3c4ed91 img=f359838c format=4 hassibling=1 alphamode=2
"cd13s" width=128 height=256 png=689184cd img=b92f94be format=4 hassibling=1 alphamode=2
"cd1c" width=128 height=256 png=ea232601 img=eeebcd82 format=4 hassibling=1 alphamode=2
"cd1d" width=128 height=256 png=dccc85ca img=20dd0d8e format=4 hassibling=1 alphamode=2
"cd1h" width=128 height=256 png=b50f3edb img=3c436fe1 format=4 hassibling=1 alphamode=2
"cd1s" width=128 height=256 png=fe6b7047 img=e4fdd806 format=4 hassibling=1 alphamode=2
"cd2c" width=128 height=256 png=53b4805c img=44f1d1a9 format=4 hassibling=1 alphamode=2
"cd2d" width=128 height=256 png=fb0b71ba img=329a6ef1 format=4 hassibling=1 alphamode=2
"cd2h" width=128 height=256 png=7e230aa8 img=b4be5529 format=4 hassibling=1 alphamode=2
"cd2s" width=128 height=256 png=250da05d img=58d91330 format=4 hassibling=1 alphamode=2
"cd3c" width=128 height=256 png=0a9a0500 img=0879fa70 format=4 hassibling=1 alphamode=2
"cd3d" width=128 height=256 png=2a569323 img=256e3d80 format=4 hassibling=1 alphamode=2
"cd3h" width=128 height=256 png=1c8868aa img=ff624479 format=4 hassibling=1 alphamode=2
"cd3s" width=128 height=256 png=ac83d70b img=682debf8 format=4 hassibling=1 alphamode=2
"cd4c" width=128 height=256 png=24aa405a img=187e7cb4 format=4 hassibling=1 alphamode=2
"cd4d" width=128 height=256 png=00a12a1c img=28fe60a3 format=4 hassibling=1 alphamode=2
"cd4h" width=128 height=256 png=b9857e7e img=701ae08a format=4 hassibling=1 alphamode=2
"cd4s" width=128 height=256 png=cd195385 img=5c2cc882 format=4 hassibling=1 alphamode=2
"cd5c" width=128 height=256 png=cb995020 img=bdc4406e format=4 hassibling=1 alphamode=2
"cd5d" width=128 height=256 png=8818e70c img=9356728d format=4 hassibling=1 alphamode=2
"cd5h" width=128 height=256 png=b732a299 img=e5ff1834 format=4 hassibling=1 alphamode=2
"cd5s" width=128 height=256 png=355f419d img=d43db66d format=4 hassibling=1 alphamode=2
"cd6c" width=128 height=256 png=75e535b0 img=741e08ef format=4 hassibling=1 alphamode=2
"cd6d" width=128 height=256 png=a35e72ff img=947b150f format=4 hassibling=1 alphamode=2
"cd6h" width=128 height=256 png=f53d57cd img=5b0d4c82 format=4 hassibling=1 alphamode=2
"cd6s" width=128 height=256 png=6219c492 img=d9ffa99e format=4 hassibling=1 alphamode=2
"cd7c" width=128 height=256 png=e75aa137 img=31e56c43 format=4 hassibling=1 alphamode=2
"cd7d" width=128 height=256 png=98760faf img=b80fe2fe format=4 hassibling=1 alphamode=2
"cd7h" width=128 height=256 png=9db531a8 img=5657abb6 format=4 hassibling=1 alphamode=2
"cd7s" width=128 height=256 png=123ce1c1 img=0e405365 format=4 hassibling=1 alphamode=2
"cd8c" width=128 height=256 png=2dc9f5ed img=044a725a format=4 hassibling=1 alphamode=2
"cd8d" width=128 height=256 png=f8cf9e84 img=5c90e054 format=4 hassibling=1 alphamode=2
"cd8h" width=128 height=256 png=b901108f img=833b70b9 format=4 hassibling=1 alphamode=2
"cd8s" width=128 height=256 png=889a1cbe img=c683318b format=4 hassibling=1 alphamode=2
"cd9c" width=128 height=256 png=797a710a img=b6c15bcc format=4 hassibling=1 alphamode=2
"cd9d" width=128 height=256 png=c75b475e img=18e15dc5 format=4 hassibling=1 alphamode=2
"cd9h" width=128 height=256 png=30985cba img=fd78030f format=4 hassibling=1 alphamode=2
"cd9s" width=128 height=256 png=6f803e2a img=a244d4ac format=4 hassibling=1 alphamode=2
"cdback" width=128 height=256 png=6a988f2d img=3e7da7a3 format=4 alphamode=2
"badchat" width=32 height=32 png=51fc4182 img=9cd3fa55 alphamode=2
"dpad_64" width=32 height=32 png=e0dc46b5 img=23dce76c alphamode=1
"dpad_lr" width=32 height=32 png=bb9d067e img=4260f690 alphamode=1
"goodcha" width=32 height=32 png=4c8f735f img=4619f078 alphamode=2
"thumbdn" width=32 height=32 png=7f67a2c8 img=99676839 alphamode=2
"thumbup" width=32 height=32 png=037b7aec img=1739f99c alphamode=2
"brboat" width=128 height=128 png=02355b6e img=d51b125a alphamode=2
"brfly" width=128 height=128 png=bbf38e98 img=7b97413b alphamode=2
"bronze" width=128 height=128 png=3a1113ec img=02827ce7 alphamode=2
"goboat" width=128 height=128 png=effacdda img=9fd50144 alphamode=2
"gold" width=128 height=128 png=27103932 img=042352a0 alphamode=2
"golfly" width=128 height=128 png=96019292 img=f50d2b6e alphamode=2
"naward" width=256 height=128 png=b083b133 img=3b408a5c alphamode=2 streammode=1
"nawtxt" width=128 height=128 png=e826c1cc img=b330e1a1 alphamode=2
"ribb" width=256 height=128 png=e144098e img=27f8d2ea alphamode=2
"ribbw" width=64 height=64 png=ac34ebea img=fcd5ad84 alphamode=2 streammode=1
"silboat" width=128 height=128 png=8c024ac6 img=69617f25 alphamode=2
"silfly" width=128 height=128 png=a6a49553 img=3237d13e alphamode=2
"silver" width=128 height=128 png=958a5951 img=01d7b2a5 alphamode=2
"tvbase" width=1024 height=1024 png=d83246da img=d1d1db7f alphamode=2 streammode=1
"tvcorn" width=256 height=256 png=ccb20501 img=c3eec0c6 alphamode=2 streammode=1
"bee1" width=64 height=64 png=6b13e65b img=6f0b23bf alphamode=2 streammode=1
"bee2" width=64 height=64 png=72c6f4cd img=33d50d8f alphamode=2 streammode=1
"beea" width=64 height=64 png=11658d2d img=1bb8e2af alphamode=2 streammode=1
"bumble" width=256 height=128 png=5c6bf9bc img=7514e72b alphamode=2
"exitw" width=128 height=64 png=83d95798 img=8bef022e format=4 mipmode=0 alphamode=2 streammode=1
"exity" width=128 height=64 png=0e1d1462 img=021cfb6c format=4 mipmode=0 alphamode=2 streammode=1
"flwr" width=32 height=32 png=48892c17 img=86966b6a alphamode=2 streammode=1
"flwra" width=32 height=32 png=24d4f686 img=9038689e alphamode=2 streammode=1
"ghost" width=64 height=64 png=9c4a50a1 img=82e5ec0c alphamode=2 streammode=1
"hiscorew" width=128 height=32 png=ec2b462b img=499315b5 format=4 mipmode=0 alphamode=2 streammode=1
"hiscorey" width=128 height=32 png=9c8ee85d img=7299a769 format=4 mipmode=0 alphamode=2 streammode=1
"hive" width=32 height=32 png=454745ff img=cd5f7945 alphamode=2 streammode=1
"hon" width=64 height=64 png=0f734da5 img=92c29aed alphamode=1
"leaf" width=128 height=32 png=5698b3ac img=1919dc04 alphamode=2
"playw" width=128 height=64 png=5b60aa71 img=3484785d format=4 mipmode=0 alphamode=2 streammode=1
"playy" width=128 height=64 png=1e476c70 img=bf274dd1 format=4 mipmode=0 alphamode=2 streammode=1
"sky" width=128 height=128 png=f6e90d7b img=25da2326
"thorn" width=128 height=64 png=a8ad7786 img=07d568c4 alphamode=2
"timer" width=32 height=32 png=b928d42f img=1088136a alphamode=2 streammode=1
"tvl" width=256 height=256 png=3550aba7 img=7438d131 alphamode=2 streammode=1
"tvr" width=256 height=256 png=e4664d84 img=29588ce8 alphamode=2 streammode=1
"explm01" width=32 height=32 png=49f64ef1 img=c50a23fe alphamode=2
"explm02" width=32 height=32 png=02a7d84c img=5391f0b2 alphamode=2
"explm03" width=32 height=32 png=9d5ef397 img=a32a1203 alphamode=2
"explm04" width=32 height=32 png=71f015b4 img=748df0a7 alphamode=2
"explm05" width=32 height=32 png=d7a380e9 img=45e51f6e alphamode=2
"explm06" width=32 height=32 png=835bd4f5 img=c1a4c302 alphamode=2
"explm07" width=32 height=32 png=85d2ea68 img=32501c1b alphamode=2
"explm08" width=32 height=32 png=00243d6a img=f7b2b5dc alphamode=2
"explm09" width=32 height=32 png=35e32451 img=a39b75e4 alphamode=2
"explm10" width=32 height=32 png=4005672c img=f90f6505 alphamode=2
"explm11" width=32 height=32 png=4d13a1c8 img=ab319cb2 alphamode=2
"explm12" width=32 height=32 png=0fb25691 img=da0f086f alphamode=2
"force" width=64 height=32 png=1c4217ec img=ae35c108 alphamode=2
"light" width=32 height=32 png=15b355cb img=9b53f019 alphamode=2
"ship" width=64 height=64 png=fbafa83a img=8ac465da hassibling=1 alphamode=2
"ship2" width=32 height=32 png=b17e503b img=df462e60 alphamode=2
"ship3" width=32 height=32 png=a74b24d3 img=7cac7f60 alphamode=2
"shoot" width=8 height=8 png=62d9580f img=733b89ce hassibling=1 alphamode=2
"shpnorm" width=64 height=32 png=1c1ca7c7 img=3ec37211 alphamode=2
"shpwarp" width=64 height=32 png=d7344489 img=3e45e59c alphamode=1
"title" width=256 height=128 png=a93a2ac7 img=156856cd alphamode=2
"warp" width=16 height=16 png=69d499dc img=afc5557c alphamode=1
"bckgrnd" width=256 height=64 png=5176b298 img=ef5310d7 streammode=1
"blue" width=4 height=4 png=941d2e03 img=00251ab3 format=4
"bride1" width=64 height=32 png=d972f1dc img=803c1197 alphamode=2 streammode=1
"bride2" width=64 height=32 png=01fee0c7 img=f88a51ee alphamode=2 streammode=1
"bride3" width=64 height=32 png=f1e7b31c img=c9d80567 alphamode=2 streammode=1
"bride4" width=64 height=32 png=1d70a7d5 img=49384343 alphamode=2 streammode=1
"bride5" width=64 height=32 png=d57f05c9 img=5bd868fc alphamode=2 streammode=1
"bride6" width=64 height=32 png=1a5a3df2 img=9be944ca alphamode=2 streammode=1
"bride7" width=64 height=32 png=544becbf img=cd5fa730 alphamode=2 streammode=1
"bride8" width=64 height=32 png=9e69b059 img=7d4a83dc alphamode=2 streammode=1
"bushes" width=128 height=64 png=5c4122c8 img=f484ac26 alphamode=2 streammode=1
"fen" width=256 height=64 png=61de4df9 img=7fa4658e alphamode=2 streammode=1
"gride1" width=64 height=32 png=a1e5446d img=4c34f4b7 alphamode=2 streammode=1
"gride2" width=64 height=32 png=015e05c5 img=da033472 alphamode=2 streammode=1
"gride3" width=64 height=32 png=10c30b9e img=dd73c5a1 alphamode=2 streammode=1
"gride4" width=64 height=32 png=513e44d8 img=b5c3f334 alphamode=2 streammode=1
"gride5" width=64 height=32 png=33b0fe72 img=6c515477 alphamode=2 streammode=1
"gride6" width=64 height=32 png=9ea5fb86 img=aa89f71a alphamode=2 streammode=1
"gride7" width=64 height=32 png=964fab92 img=a3936f82 alphamode=2 streammode=1
"gride8" width=64 height=32 png=b56ef6ed img=eba7973f alphamode=2 streammode=1
"hrs1" width=128 height=128 png=a0ae9803 img=58aefc85 alphamode=2 streammode=1
"hrs2" width=128 height=128 png=673ad439 img=cf67d1b2 alphamode=2 streammode=1
"hrs3" width=128 height=128 png=e5a0b5ff img=abebca8c alphamode=2 streammode=1
"hrs4" width=128 height=128 png=6dfcb7ea img=4218baa3 alphamode=2 streammode=1
"hrs5" width=128 height=128 png=4ea99dfd img=5fdeee08 alphamode=2 streammode=1
"hrs6" width=128 height=128 png=7a57ce86 img=8d0c6431 alphamode=2 streammode=1
"hrs7" width=128 height=128 png=1fa373f8 img=187ec885 alphamode=2 streammode=1
"hrs8" width=128 height=128 png=cc0fac95 img=68b9c014 alphamode=2 streammode=1
"pole2" width=256 height=256 png=d76c54ae img=1f2ecf3b alphamode=2 streammode=1
"pride1" width=64 height=32 png=c4664d89 img=d18e65d8 alphamode=2 streammode=1
"pride2" width=64 height=32 png=5dbd1d2f img=90d72102 alphamode=2 streammode=1
"pride3" width=64 height=32 png=a0caec57 img=57818606 alphamode=2 streammode=1
"pride4" width=64 height=32 png=08fb91a3 img=4e433648 alphamode=2 streammode=1
"pride5" width=64 height=32 png=e81d5a9a img=c56425b8 alphamode=2 streammode=1
"pride6" width=64 height=32 png=adfa13e9 img=20079ea5 alphamode=2 streammode=1
"pride7" width=64 height=32 png=c9fd6ed0 img=1cf99c34 alphamode=2 streammode=1
"pride8" width=64 height=32 png=68c829db img=4a6a3db2 alphamode=2 streammode=1
"rride1" width=64 height=32 png=e6f3b3dd img=0104d349 alphamode=2 streammode=1
"rride2" width=64 height=32 png=8731cc4d img=09613ce1 alphamode=2 streammode=1
"rride3" width=64 height=32 png=76a028bb img=c2b79fc2 alphamode=2 streammode=1
"rride4" width=64 height=32 png=0698f75b img=6f6cf521 alphamode=2 streammode=1
"rride5" width=64 height=32 png=425c6242 img=7bb36906 alphamode=2 streammode=1
"rride6" width=64 height=32 png=780958c6 img=b4ae3b8e alphamode=2 streammode=1
"rride7" width=64 height=32 png=122e198f img=8105f6fe alphamode=2 streammode=1
"rride8" width=64 height=32 png=6b83c16b img=d37da15d alphamode=2 streammode=1
"trees" width=256 height=256 png=162b0a5a img=008759a4 alphamode=2 streammode=1
"yride1" width=64 height=32 png=b3af1ae5 img=1f2b4d6b alphamode=2 streammode=1
"yride2" width=64 height=32 png=bb1ceeac img=f33913c2 alphamode=2 streammode=1
"yride3" width=64 height=32 png=b2be02fb img=06b44aae alphamode=2 streammode=1
"yride4" width=64 height=32 png=04349e3e img=86a84871 alphamode=2 streammode=1
"yride5" width=64 height=32 png=74695855 img=d35aee6c alphamode=2 streammode=1
"yride6" width=64 height=32 png=74245cde img=59d9cdc2 alphamode=2 streammode=1
"yride7" width=64 height=32 png=0ee87452 img=718b1df4 alphamode=2 streammode=1
"yride8" width=64 height=32 png=7e0be13b img=ecfbc312 alphamode=2 streammode=1
"backbet" width=512 height=512 png=4862a891 img=01b936cc alphamode=2 streammode=1
"addcoin" width=64 height=32 png=3fab05d9 img=fb460e6c
"backcyan" width=32 height=32 png=381f8b6f img=69bff040
"backred" width=32 height=32 png=70be9a07 img=034d57e3
"cd10c_LD_POKE" "affiliate=cd10c" hassibling=1
"cd10d_LD_POKE" "affiliate=cd10d" hassibling=1
"cd10h_LD_POKE" "affiliate=cd10h" hassibling=1
"cd10s_LD_POKE" "affiliate=cd10s" hassibling=1
"cd11c_LD_POKE" "affiliate=cd11c" hassibling=1
"cd11d_LD_POKE" "affiliate=cd11d" hassibling=1
"cd11h_LD_POKE" "affiliate=cd11h" hassibling=1
"cd11s_LD_POKE" "affiliate=cd11s" hassibling=1
"cd12c_LD_POKE" "affiliate=cd12c" hassibling=1
"cd12d_LD_POKE" "affiliate=cd12d" hassibling=1
"cd12h_LD_POKE" "affiliate=cd12h" hassibling=1
"cd12s_LD_POKE" "affiliate=cd12s" hassibling=1
"cd13c_LD_POKE" "affiliate=cd13c" hassibling=1
"cd13d_LD_POKE" "affiliate=cd13d" hassibling=1
"cd13h_LD_POKE" "affiliate=cd13h" hassibling=1
"cd13s_LD_POKE" "affiliate=cd13s" hassibling=1
"cd1c_LD_POKE" "affiliate=cd1c" hassibling=1
"cd1d_LD_POKE" "affiliate=cd1d" hassibling=1
"cd1h_LD_POKE" "affiliate=cd1h" hassibling=1
"cd1s_LD_POKE" "affiliate=cd1s" hassibling=1
"cd2c_LD_POKE" "affiliate=cd2c" hassibling=1
"cd2d_LD_POKE" "affiliate=cd2d" hassibling=1
"cd2h_LD_POKE" "affiliate=cd2h" hassibling=1
"cd2s_LD_POKE" "affiliate=cd2s" hassibling=1
"cd3c_LD_POKE" "affiliate=cd3c" hassibling=1
"cd3d_LD_POKE" "affiliate=cd3d" hassibling=1
"cd3h_LD_POKE" "affiliate=cd3h" hassibling=1
"cd3s_LD_POKE" "affiliate=cd3s" hassibling=1
"cd4c_LD_POKE" "affiliate=cd4c" hassibling=1
"cd4d_LD_POKE" "affiliate=cd4d" hassibling=1
"cd4h_LD_POKE" "affiliate=cd4h" hassibling=1
"cd4s_LD_POKE" "affiliate=cd4s" hassibling=1
"cd5c_LD_POKE" "affiliate=cd5c" hassibling=1
"cd5d_LD_POKE" "affiliate=cd5d" hassibling=1
"cd5h_LD_POKE" "affiliate=cd5h" hassibling=1
"cd5s_LD_POKE" "affiliate=cd5s" hassibling=1
"cd6c_LD_POKE" "affiliate=cd6c" hassibling=1
"cd6d_LD_POKE" "affiliate=cd6d" hassibling=1
"cd6h_LD_POKE" "affiliate=cd6h" hassibling=1
"cd6s_LD_POKE" "affiliate=cd6s" hassibling=1
"cd7c_LD_POKE" "affiliate=cd7c" hassibling=1
"cd7d_LD_POKE" "affiliate=cd7d" hassibling=1
"cd7h_LD_POKE" "affiliate=cd7h" hassibling=1
"cd7s_LD_POKE" "affiliate=cd7s" hassibling=1
"cd8c_LD_POKE" "affiliate=cd8c" hassibling=1
"cd8d_LD_POKE" "affiliate=cd8d" hassibling=1
"cd8h_LD_POKE" "affiliate=cd8h" hassibling=1
"cd8s_LD_POKE" "affiliate=cd8s" hassibling=1
"cd9c_LD_POKE" "affiliate=cd9c" hassibling=1
"cd9d_LD_POKE" "affiliate=cd9d" hassibling=1
"cd9h_LD_POKE" "affiliate=cd9h" hassibling=1
"cd9s_LD_POKE" "affiliate=cd9s" hassibling=1
"deal" width=64 height=32 png=132ea56f img=43d602ad
"holdmid" width=64 height=32 png=4e27ad98 img=46b01699
"holdoff" width=64 height=32 png=a2ca0ad1 img=988a35fc
"holdon" width=64 height=32 png=0c3fcaba img=e9fa9e7b
"race00" width=256 height=256 png=5890fede img=8977c56f streammode=1
"race01" width=256 height=256 png=9cbe8a8d img=115103a7 streammode=1
"race02" width=256 height=256 png=022fcc82 img=cc83280f streammode=1
"race03" width=256 height=256 png=cd09066f img=5f60b90b streammode=1
"race04" width=256 height=256 png=193653f9 img=3fa92d21 streammode=1
"race05" width=256 height=256 png=ea9f237a img=dfbaeb74 streammode=1
"race06" width=256 height=256 png=4bd13a5d img=1f9db618 streammode=1
"race07" width=256 height=256 png=edcfa2bc img=095f9b25 streammode=1
"race08" width=256 height=256 png=20713b00 img=05774598 streammode=1
"race09" width=256 height=256 png=a8951e64 img=831d40f4 streammode=1
"race10" width=256 height=256 png=c07de56a img=1e91f2ed streammode=1
"race11" width=256 height=256 png=22dbafa2 img=03aafc3b streammode=1
"race12" width=256 height=256 png=87585c1c img=79283041 streammode=1
"race13" width=256 height=256 png=bc1994d4 img=029d1911 streammode=1
"race14" width=256 height=256 png=f96ce941 img=15404e74 streammode=1
"race15" width=256 height=256 png=2df2948a img=a19e4c96 streammode=1
"race16" width=256 height=256 png=9dc7a370 img=d0f63ca6 streammode=1
"race17" width=256 height=256 png=72327a8a img=5e38ca61 streammode=1
"race18" width=256 height=256 png=26041d78 img=17b8df1f streammode=1
"race19" width=256 height=256 png=2e6bb1d4 img=08ee54b8 streammode=1
"race20" width=256 height=256 png=682309ed img=415a47f0 streammode=1
"race21" width=256 height=256 png=a60d2bd7 img=7b7699ff streammode=1
"race22" width=256 height=256 png=8145c3d5 img=e4b61cb9 streammode=1
"race23" width=256 height=256 png=6db33c3d img=40f53e88 streammode=1
"race24" width=256 height=256 png=eb210ae1 img=0b424903 streammode=1
"roulbla" width=128 height=128 png=1a8169b0 img=c497fdc6 alphamode=2
"roulgre" width=128 height=128 png=e28ee300 img=5ef1f308 alphamode=2
"roulred" width=128 height=128 png=68889a56 img=0614b10d alphamode=2
"bstars" width=128 height=128 png=55dfe812 img=4275db8d
"cbarl" width=16 height=16 png=c36f903b img=86591881
"cbarm" width=16 height=16 png=ac13a650 img=b061f1f3
"cbarr" width=16 height=16 png=70bc36dd img=438129a9
"ex1" width=32 height=32 png=0e98abab img=4255fdab alphamode=2
"ex2" width=32 height=32 png=909209ea img=d7b9d8b5 alphamode=2
"ex3" width=32 height=32 png=0dc14876 img=c62f9782 alphamode=2
"ex4" width=32 height=32 png=6d7f95cf img=32b9e1ef alphamode=2
"fire" width=16 height=8 png=444ed7f1 img=44c9eac2 alphamode=2
"fstar" width=128 height=128 png=f3ab477c img=90617daa alphamode=2
"hbarl" width=16 height=16 png=e8c2a3e1 img=d3d73070
"hbarm" width=16 height=16 png=d3c27dec img=c3abd49c
"hbarr" width=16 height=16 png=63c69edf img=c46e2ed8
"hi_a" width=128 height=64 png=c98e9618 img=45ffdcb5 format=4 mipmode=0 alphamode=2 streammode=1
"hi_b" width=128 height=32 png=98eec342 img=46d6d06e format=4 mipmode=0 alphamode=2 streammode=1
"hi_c" width=128 height=64 png=c0b7ccea img=94de51fd format=4 mipmode=0 alphamode=2 streammode=1
"kami" width=64 height=64 png=c7557bb1 img=29c5ffe8 format=1 alphamode=1 streammode=1
"nmef" width=16 height=8 png=286d14d8 img=a669e2c7 alphamode=2 streammode=1
"pa" width=32 height=32 png=b48adfe9 img=002c12d9 alphamode=2
"pm2" width=32 height=32 png=577413b2 img=c9be39c7 alphamode=2
"pm3" width=32 height=32 png=6c07a756 img=25b04447 alphamode=2
"ps1" width=32 height=32 png=c89b2cb1 img=01c713d6 alphamode=2
"ps2" width=32 height=32 png=050a4ce6 img=249c9e2b alphamode=2
"ps3" width=32 height=32 png=44d4cd7c img=a1153459 alphamode=2
"ship_ld_shtr" width=64 height=64 png=fbafa83a img=8ac465da alphamode=2
"splsh" width=256 height=128 png=8a7f67fd img=36032851 alphamode=2 streammode=1
"ufo" width=64 height=64 png=eea3b333 img=7ffa2cd7 alphamode=2
"un_a" width=128 height=64 png=e084a4ae img=be9b430e format=4 mipmode=0 alphamode=2 streammode=1
"un_b" width=128 height=32 png=b3b99ec0 img=3f812cc1 format=4 mipmode=0 alphamode=2 streammode=1
"un_c" width=128 height=64 png=1ecf2c6c img=98f02e9a format=4 mipmode=0 alphamode=2 streammode=1
"bar1_o" width=128 height=128 png=880984da img=015c1077 format=4 alphamode=2
"bar2_o" width=128 height=128 png=e1e6a79a img=5f200d99 format=4 alphamode=2
"bell" width=128 height=128 png=b2881076 img=e1c15d61 format=4 alphamode=2
"cherry" width=64 height=64 png=530a18cf img=16c74076 format=4 alphamode=2
"grapes" width=128 height=128 png=0b9eefcd img=3e09782e format=4 alphamode=2
"r_69" width=128 height=128 png=659bc0fd img=46d409f9 format=4 alphamode=2
"backgnd" width=256 height=256 png=aed6326a img=a7f704d9
"black" width=8 height=8 png=a3ae0093 img=6d0d4a3e
"dark" width=32 height=32 png=660561fa img=7e816a66 alphamode=2
"layer" width=256 height=256 png=a3d0845b img=7ecd346c alphamode=2
"power" width=16 height=4 png=a2d25216 img=1af412c3
"rockshp" width=32 height=32 png=48305f34 img=1ee816fd alphamode=2
"shoot_LD_SPAC" width=8 height=8 png=62d9580f img=733b89ce alphamode=1
"white_LD_SPAC" "affiliate=blkdot"
"10ls" width=64 height=64 png=c3cc195d img=0595b0f4
"10ls2" width=64 height=64 png=a91b0cad img=076f4e3c
"10ls3" width=64 height=64 png=5705840b img=4cb9cc25
"10ls4" width=64 height=64 png=b20caaf7 img=21e09ec6
"10ls5" width=64 height=64 png=f2ed0609 img=90f96c8e
"10og" width=64 height=64 png=06f8e739 img=8e71b10f
"10weed" width=64 height=64 png=12b9aeef img=ce160695
"11dice" width=64 height=64 png=7875ea9f img=fa18582b
"11dice2" width=64 height=64 png=fa1b1efc img=c1881540
"11ggift" width=64 height=64 png=6d3802dd img=ab6225fa
"11grov2" width=64 height=64 png=89bdd282 img=286ebebb
"11grov3" width=64 height=64 png=95f7577a img=2ff09366
"11grove" width=64 height=64 png=16791177 img=9c77ac5c
"11jail" width=64 height=64 png=8d74ca4f img=531f1834
"12angel" width=64 height=64 png=bc5be3d1 img=6fa1df03
"12bndit" width=64 height=64 png=5da2adbd img=489e00fa
"12cross" width=64 height=64 png=5536e34f img=9b4cc4d0
"12dager" width=64 height=64 png=0afdd44f img=068b348a
"12maybr" width=64 height=64 png=65195bde img=a1d5167d
"12myfac" width=64 height=64 png=d1d9005a img=67dec081
"4rip" width=64 height=64 png=7f8b8730 img=68b843a9
"4spider" width=64 height=64 png=8194154d img=30d1315f
"4weed" width=64 height=64 png=a28d4b46 img=01d182bc
"5cross" width=64 height=64 png=8e79c52a img=78181376
"5cross2" width=64 height=64 png=753fbb0f img=4d9854a5
"5cross3" width=64 height=64 png=d80e0121 img=9094ef99
"5gun" width=64 height=64 png=ccd72f47 img=3c9af8ce
"6africa" width=64 height=64 png=ea6a197c img=1f3f0e87
"6aztec" width=64 height=64 png=cb9227f6 img=b77ee138
"6clown" width=64 height=64 png=c54b2661 img=fac1f632
"6crown" width=64 height=64 png=e025e1d6 img=60760288
"7cross" width=64 height=64 png=f6294a08 img=5207f366
"7cross2" width=64 height=64 png=cf782bc4 img=9efe9939
"7cross3" width=64 height=64 png=a8665fdf img=5ee1574e
"7mary" width=64 height=64 png=e05c7f80 img=13212e36
"8gun" width=64 height=64 png=d351e390 img=dbbea706
"8poker" width=64 height=64 png=0818c0d8 img=5c8a5f53
"8sa" width=64 height=64 png=b5619bb0 img=6ee83ea5
"8sa2" width=64 height=64 png=0045f061 img=3fca3525
"8sa3" width=64 height=64 png=9b601240 img=85866b2c
"8santos" width=64 height=64 png=dfbff876 img=5014b456
"8westsd" width=64 height=64 png=0d92ba8f img=7eb357b6
"9bullt" width=64 height=64 png=60991366 img=7eb52e9c
"9crown" width=64 height=64 png=475d8c77 img=e0c4eaf2
"9gun" width=64 height=64 png=c3e2ddc0 img=77e7ecbd
"9gun2" width=64 height=64 png=ee55a80c img=3cd64db8
"9homby" width=64 height=64 png=dc6ea9b7 img=a811dd07
"9rasta" width=64 height=64 png=e5d646ef img=4151627d
"splash1" width=512 height=256 png=ad6f32b1 img=a72a7d08 format=4 streammode=1
"splash2" width=512 height=256 png=986f6136 img=de6ab8df format=4 streammode=1
"healthlc" width=16 height=4 png=2a785f18 img=904c1835 streammode=1
"dualitylc" width=256 height=128 png=a55d01f9 img=046f6c5b streammode=1
"thrust" width=32 height=32 png=e695b106 img=36edba0a alphamode=2 streammode=1
"Taptap_note" width=128 height=128 png=83c5011c img=795742e3 alphamode=2 streammode=1
"Taptap_button" width=128 height=128 png=13b3d624 img=46b5aa8a alphamode=2 streammode=1
"Taptap_bar" width=64 height=64 png=74592d94 img=5a768883 streammode=1
"airlogo" width=256 height=128 png=ea531119 img=97cb9336 streammode=1
"butna" width=256 height=64 png=e5ef2423 img=2374e1cc streammode=1
"butnao" width=128 height=64 png=e812ed21 img=9bf9c808 alphamode=2 streammode=1
"butnb" width=128 height=64 png=b9bd3969 img=1dfd70d9 alphamode=2 streammode=1
"butnbo" width=64 height=64 png=ab9c2050 img=781c5c9a alphamode=2 streammode=1
"butnc" width=64 height=64 png=9c8d9292 img=c8b91cbe alphamode=2 streammode=1
"ball" width=128 height=128 png=c28dc4d3 img=de744bcd alphamode=2 streammode=1
"nib" width=32 height=32 png=0e1a1d28 img=27d5bf58 alphamode=2 streammode=1
"bronze_bike" width=128 height=128 png=635005e6 img=d8d4ccf7 alphamode=2
"silver_bike" width=128 height=128 png=83516031 img=127b25a7 alphamode=2
"gold_bike" width=128 height=128 png=cc836584 img=c400e018 alphamode=2
"dance_bg" width=512 height=128 png=360d0d52 img=f3b1c985 format=4 alphamode=2
"pokerbg" width=512 height=512 png=63f90570 img=7f6132a3 format=4 streammode=1
"racingscreenbg" width=512 height=512 png=68ecc7b5 img=70beed8b alphamode=2
"racingheader" width=256 height=64 png=56f82f2c img=f086d6e6 alphamode=2
"riderdot" width=64 height=64 png=71fa0138 img=f9d41729 alphamode=2
"goldrim" width=32 height=32 png=eb2a1359 img=6df22643 alphamode=2
"greenbg" width=256 height=256 png=ff670541 img=d919de4e
"racetop" width=512 height=128 png=de6748c4 img=3694d4d0 alphamode=2
"racebottom" width=512 height=128 png=90620f90 img=19908e39 alphamode=2
"cabcorn" width=512 height=512 png=e787c970 img=4749275b format=4 alphamode=2
"accelerate" width=256 height=256 png=c7ae034e img=b553f4d8 alphamode=2
"rightB" width=128 height=128 png=763f744b img=62facefb alphamode=2
"upy" width=128 height=128 png=77ba54ab img=59f59f83 alphamode=2
"downa" width=128 height=128 png=669258c2 img=bbe2c090 alphamode=2
"leftx" width=128 height=128 png=6be006b2 img=ba91e7e4 alphamode=2
"rightb" width=128 height=128 png=763f744b img=62facefb alphamode=2
"error" width=44 height=44 img=303c8fec camnorm=1 mipmode=0
"info" width=44 height=44 img=fde7df97 camnorm=1 mipmode=0
"connect" width=32 height=32 img=444e2f3e camnorm=1
"refresh" width=32 height=32 img=afb9dc07 camnorm=1
"background_logo" width=1056 height=540 img=771f2ce camnorm=1 mipmode=0 alphamode=2
"background" width=1280 height=648 img=bc7f0b6d camnorm=1 mipmode=0 alphamode=2
"latest_news" width=332 height=52 img=96f30283 camnorm=1 mipmode=0 alphamode=2
"menu_about" width=148 height=32 img=39c82cb3 camnorm=1 mipmode=0 alphamode=2
"menu_browse_servers" width=388 height=32 img=535885e0 camnorm=1 mipmode=0 alphamode=2
"menu_disconnect" width=276 height=32 img=7e0103c6 camnorm=1 mipmode=0 alphamode=2
"menu_host_game" width=248 height=32 img=db7a6d27 camnorm=1 mipmode=0 alphamode=2
"menu_map_editor" width=260 height=32 img=6de74cb9 camnorm=1 mipmode=0 alphamode=2
"menu_quick_connect" width=356 height=32 img=8575d039 camnorm=1 mipmode=0 alphamode=2
"menu_quit" width=100 height=32 img=49de119c camnorm=1 mipmode=0 alphamode=2
"menu_settings" width=204 height=32 img=5dc9c143 camnorm=1 mipmode=0 alphamode=2
"version" width=32 height=32 img=c5fb2133 camnorm=1 alphamode=2
"busy_spinner" width=384 height=32 img=982adbb1 camnorm=1 mipmode=0 alphamode=2
"background_logo_android01" width=1056 height=540 img=686ae189 camnorm=1 mipmode=0 alphamode=2
"background_logo_android02" width=1056 height=540 img=64d3e784 camnorm=1 mipmode=0 alphamode=2
"background_logo_android03" width=1056 height=540 img=32a07508 camnorm=1 mipmode=0 alphamode=2
"background_logo_android04" width=1056 height=540 img=46057a22 camnorm=1 mipmode=0 alphamode=2
"home846_logo" width=1920 height=1080 img=e8692e29 camnorm=1 mipmode=0 alphamode=2
